<svg width="33" height="33" viewBox="0 0 33 33" fill="none" xmlns="http://www.w3.org/2000/svg">
<rect x="2.78906" y="18.8579" width="2" height="20" rx="1" transform="rotate(-45 2.78906 18.8579)" fill="#83388B"/>
<rect x="15.9072" y="1.83838" width="2" height="30" rx="1" fill="#83388B"/>
<rect x="16.9312" y="33" width="2" height="20" rx="1" transform="rotate(-135 16.9312 33)" fill="#83388B"/>
</svg>
