<svg width="52" height="53" viewBox="0 0 52 53" fill="none" xmlns="http://www.w3.org/2000/svg">
<path d="M42.8263 22.3099C44.8965 20.9127 46.2605 18.5456 46.2605 15.8659C46.2605 11.5813 42.7747 8.09545 38.49 8.09545C34.2054 8.09545 30.7196 11.5813 30.7196 15.8659C30.7196 18.5444 32.0823 20.9106 34.1509 22.3081C32.6439 22.8183 31.233 23.5951 29.9803 24.6137C28.9204 23.5943 27.4979 23.0072 26 23.0072C24.5021 23.0072 23.0797 23.5945 22.0204 24.6137C20.7673 23.5951 19.3562 22.8183 17.849 22.308C19.9176 20.9105 21.2803 18.5443 21.2803 15.8657C21.2803 11.5811 17.7944 8.09525 13.5098 8.09525C9.22571 8.09525 5.74039 11.5811 5.74039 15.8657C5.74039 18.5454 7.10407 20.9124 9.17392 22.3097C3.85326 24.1176 0.0127764 29.1576 0.0012998 35.0794C0.000995117 35.0884 -0.00012207 35.097 -0.00012207 35.1059C-0.00012207 36.6713 0.889362 38.9815 5.12716 41.0981C8.14682 42.6063 12.2965 43.74 17.1276 44.3765C19.9614 44.7503 22.9465 44.9399 26 44.9399C29.0542 44.9399 32.0396 44.7504 34.8733 44.3765C39.704 43.74 43.8533 42.6063 46.8729 41.0981C51.1104 38.9814 51.9999 36.6713 51.9999 35.1059C51.9999 29.1727 48.1552 24.1206 42.8263 22.3099ZM32.7589 15.8659C32.7589 12.7057 35.3299 10.1347 38.49 10.1347C41.6502 10.1347 44.2212 12.7058 44.2212 15.8659C44.2212 19.0256 41.6502 21.5961 38.49 21.5961C35.3299 21.5961 32.7589 19.0256 32.7589 15.8659ZM22.9577 26.6393C23.6504 25.642 24.7875 25.0464 25.9999 25.0464C27.2128 25.0464 28.3503 25.642 29.043 26.6393C29.0431 26.6396 29.0433 26.6399 29.0434 26.6401C29.4757 27.2615 29.704 27.9912 29.704 28.7506C29.704 30.7931 28.0423 32.4548 25.9998 32.4548C23.9578 32.4548 22.2966 30.793 22.2966 28.7505C22.2966 27.99 22.5248 27.2605 22.9577 26.6393ZM7.77946 15.8659C7.77946 12.7057 10.35 10.1347 13.5096 10.1347C16.6698 10.1347 19.2408 12.7058 19.2408 15.8659C19.2408 19.0256 16.6697 21.5961 13.5096 21.5961C10.35 21.5961 7.77946 19.0256 7.77946 15.8659ZM16.2417 42.191C12.1299 41.5649 8.61989 40.5632 6.03848 39.2738C3.46692 37.9896 2.04789 36.5141 2.03966 35.1181C2.03966 35.114 2.04027 35.1101 2.04027 35.106C2.04017 28.7811 7.18543 23.6353 13.5097 23.6353C16.2003 23.6353 18.7673 24.5648 20.8215 26.2673C20.4511 27.0371 20.2575 27.8809 20.2575 28.7507C20.2575 30.5257 21.0671 32.1151 22.336 33.1695C18.7721 34.6185 16.2509 38.1151 16.2417 42.191ZM33.7204 42.4639C31.2403 42.7533 28.6482 42.9008 25.9999 42.9008C23.3521 42.9008 20.7605 42.7533 18.2804 42.4639V42.2136C18.2804 37.957 21.7433 34.4941 25.9999 34.4941C30.257 34.4941 33.7204 37.957 33.7204 42.2136V42.4639ZM45.9616 39.2737C43.3804 40.5632 39.8708 41.5648 35.7594 42.1909C35.7502 38.115 33.2288 34.6186 29.6646 33.1694C30.9338 32.115 31.7435 30.5256 31.7435 28.7505C31.7435 27.8818 31.55 27.0377 31.1792 26.2672C33.2324 24.5646 35.7991 23.6351 38.4902 23.6351C44.815 23.6352 49.9607 28.781 49.9607 35.1058C49.9607 36.5055 48.5405 37.9857 45.9616 39.2737Z" fill="#59235F"/>
</svg>
